[{
	"eventId": "ST_1",
	"eventType": "Step",
	"displayMsg": "I heard about the famous cornbread. What makes it so delicious?",
	"hint": "",
	"options": [{
			"label": "It is bread made with corn.",
			"hint": "This probably won’t excite the Guest. Why don’t you try again?",
			"nextNode": ""
		},
		{
			"label": "It is just so good. You should try it.",
			"hint": "You are not describing the food. Try again.",
			"nextNode": ""
		},
		{
			"label": "It’s homemade with sweet summer corn, cornmeal and a touch of jalapeno.",
			"hint": "Great! Can you tell me more about the pork chops?",
			"nextNode": "ST_2"
		}
	]
},
{
	"eventId": "ST_2",
	"eventType": "Step",
	"displayMsg": "Great! Can you tell me more about the pork chops?",
	"hint": "",
	"options": [{
			"label": " Yeah, it’s served with apple jus.",
			"hint": "This sounds very uninspiring. Why don’t you try to be more foodie?",
			"nextNode": ""
		},
		{
			"label": " It is great.",
			"hint": "Really? Do you think that your Guest is going to be drooling over this description of pork chops?",
			"nextNode": ""
		},
		{
			"label": " The Berkshire bone-in chops are chargrilled, drizzled with rich apple jus.",
			"hint": "Amazing. The chocolate dessert looks lovely, have you had it before? What is it like?",
			"nextNode": "ST_3"
		}
	]
},
{
	"eventId": "ST_3",
	"eventType": "Step",
	"displayMsg": "Amazing. The chocolate dessert looks lovely, have you had it before? What is it like?",
	"hint": "",
	"options": [{
			"label": " Yeah, I have had it before. It is so yummy. You should try it.",
			"hint": "‘Yummy’ doesn’t really mean anything does it? Why don’t you try that again?",
			"nextNode": ""
		},
		{
			"label": " It is absolutely to die for. Can I order a portion for you?",
			"hint": "Would you really want to die for food? Try again.",
			"nextNode": ""
		},
		{
			"label": " So decadent. It has a moist centre smothered in rich salted caramel sauce.",
			"hint": "Well done. Keep it up and keep practicing to get your foodie on!",
			"nextNode": "ST_4"
		}
	]
}
]
